{
	"commentStamp" : "Anonymous 12/18/2017 16:46",
	"super" : "User",
	"category" : "BookCollector",
	"classinstvars" : [ ],
	"pools" : [ ],
	"classvars" : [ ],
	"instvars" : [ ],
	"name" : "Admin",
	"type" : "normal"
}