{
	"commentStamp" : "Anonymous 11/25/2017 19:51",
	"super" : "WAExampleComponent",
	"category" : "BookCollectorUI",
	"classinstvars" : [ ],
	"pools" : [ ],
	"classvars" : [ ],
	"instvars" : [
		"bookNumbers",
		"createBookErrorContainer",
		"createCopyErrorContainer"
	],
	"name" : "CreateBookUI",
	"type" : "normal"
}