{
	"commentStamp" : "Anonymous 11/27/2017 21:01",
	"super" : "WAExampleComponent",
	"category" : "BookCollectorUI",
	"classinstvars" : [ ],
	"pools" : [ ],
	"classvars" : [ ],
	"instvars" : [
		"returnBookErrorContainer"
	],
	"name" : "UserDetailUI",
	"type" : "normal"
}