{
	"commentStamp" : "Anonymous 11/22/2017 18:36",
	"super" : "WAExampleComponent",
	"category" : "BookCollector",
	"classinstvars" : [
		"instance"
	],
	"pools" : [ ],
	"classvars" : [ ],
	"instvars" : [
		"books"
	],
	"name" : "BookService",
	"type" : "normal"
}