{
	"commentStamp" : "Anonymous 12/16/2017 12:08",
	"super" : "Object",
	"category" : "BookCollectorSupport",
	"classinstvars" : [ ],
	"pools" : [ ],
	"classvars" : [ ],
	"instvars" : [
		"successMessage",
		"failureMessage"
	],
	"name" : "CommonErrorContainer",
	"type" : "normal"
}