{
	"commentStamp" : "Anonymous 12/18/2017 16:58",
	"super" : "Object",
	"category" : "BookCollectorSupport",
	"classinstvars" : [ ],
	"pools" : [ ],
	"classvars" : [ ],
	"instvars" : [
		"report"
	],
	"name" : "UserVisitor",
	"type" : "normal"
}