{
	"commentStamp" : "Anonymous 11/21/2017 19:19",
	"super" : "WAExampleComponent",
	"category" : "BookCollector",
	"classinstvars" : [ ],
	"pools" : [ ],
	"classvars" : [ ],
	"instvars" : [
		"author",
		"title",
		"bookNumber",
		"copyList",
		"genre",
		"publisher"
	],
	"name" : "Book",
	"type" : "normal"
}