{
	"commentStamp" : "TomasGreger 12/22/2017 20:17",
	"super" : "User",
	"category" : "BookCollector",
	"classinstvars" : [ ],
	"pools" : [ ],
	"classvars" : [ ],
	"instvars" : [ ],
	"name" : "NullUser",
	"type" : "normal"
}